…
``` r
 table1  # print table1 (table containig all data that will be  explored in the data analysis)
```

    ## # A tibble: 3,801,534 x 9
    ##    birth_year month_of_birth day_of_birth age_of_mother race_of_mother
    ##         <dbl> <chr>                 <dbl>         <dbl>          <dbl>
    ##  1       2018 01                        2            30              1
    ##  2       2018 01                        2            35              3
    ##  3       2018 01                        2            28              1
    ##  4       2018 01                        2            23              3
    ##  5       2018 01                        3            37              1
    ##  6       2018 01                        2            26              1
    ##  7       2018 01                        3            28              1
    ##  8       2018 01                        4            31              1
    ##  9       2018 01                        5            37              1
    ## 10       2018 01                        6            26              1
    ## # … with 3,801,524 more rows, and 4 more variables: place_of_birth <dbl>,
    ## #   marital_status <dbl>, mother_education_level <dbl>,
    ## #   father_education_level <dbl>
…
