…
``` r
table1  # print table1 (table containig all data that will be  explored in the data analysis)
```

    ## # A tibble: 3,801,534 x 9
    ##     year month   day   age  race place mstatus meduc feduc
    ##    <dbl> <chr> <dbl> <dbl> <dbl> <dbl>   <dbl> <dbl> <dbl>
    ##  1  2018 01        2    30     1     1       1     6     3
    ##  2  2018 01        2    35     3     1       2     9     4
    ##  3  2018 01        2    28     1     1       1     6     4
    ##  4  2018 01        2    23     3     1       2     2     2
    ##  5  2018 01        3    37     1     1       1     4     3
    ##  6  2018 01        2    26     1     2       1     6     6
    ##  7  2018 01        3    28     1     1       1     4     6
    ##  8  2018 01        4    31     1     1       1     3     7
    ##  9  2018 01        5    37     1     1       1     2     4
    ## 10  2018 01        6    26     1     1       1     7     6
    ## # … with 3,801,524 more rows
…
main_table
```

    ## # A tibble: 3,801,534 x 9
    ##     year month  day      age race    place     mstatus meduc        feduc       
    ##    <int> <fct>  <fct>  <dbl> <fct>   <fct>     <fct>   <fct>        <fct>       
    ##  1  2018 Janua… Monday    30 White … Hospital  Married Bachelor'sd… High School…
    ##  2  2018 Janua… Monday    35 AIAN (… Hospital  Unmarr… Unknown      Some colleg…
    ##  3  2018 Janua… Monday    28 White … Hospital  Married Bachelor'sd… Some colleg…
    ##  4  2018 Janua… Monday    23 AIAN (… Hospital  Unmarr… 9th through… 9th through…
    ##  5  2018 Janua… Tuesd…    37 White … Hospital  Married Some colleg… High School…
    ##  6  2018 Janua… Monday    26 White … Free sta… Married Bachelor'sd… Bachelor'sd…
    ##  7  2018 Janua… Tuesd…    28 White … Hospital  Married Some colleg… Bachelor'sd…
    ##  8  2018 Janua… Wedne…    31 White … Hospital  Married High School… Master's de…
    ##  9  2018 Janua… Thurs…    37 White … Hospital  Married 9th through… Some colleg…
    ## 10  2018 Janua… Friday    26 White … Hospital  Married Master's de… Bachelor'sd…
    ## # … with 3,801,524 more rows
…
